waveform.vcd
$date
     Jul 23, 2023       10:31:21
$end

$version
 SystemC 2.3.2-Accellera --- Jul 17 2023 12:04:00
$end

$timescale
     1 ps
$end

$scope module SystemC $end
$var wire    1  aaaaa  clock       $end
$var wire    8  aaaab  ch [7:0]  $end
$upscope $end
$enddefinitions  $end

$comment
All initial values are dumped below at time 0 sec = 0 timescale units.
$end

$dumpvars
1aaaaa
b100000 aaaab
$end

#5000
0aaaaa

#10000
1aaaaa
b1101000 aaaab

#15000
0aaaaa

#20000
1aaaaa
b1100101 aaaab

#25000
0aaaaa

#30000
1aaaaa
b1101100 aaaab

#35000
0aaaaa

#40000
1aaaaa

#45000
0aaaaa

#50000
1aaaaa
b1101111 aaaab

#55000
0aaaaa

#60000
1aaaaa
b100000 aaaab

#65000
0aaaaa

#70000
1aaaaa
b1110011 aaaab

#75000
0aaaaa

#80000
1aaaaa
b1101000 aaaab

#85000
0aaaaa

#90000
1aaaaa
b1101001 aaaab

#95000
0aaaaa

#100000
1aaaaa
b1110110 aaaab

#105000
0aaaaa

#110000
1aaaaa
b1100001 aaaab

#115000
0aaaaa

#120000
1aaaaa
b1101110 aaaab

#125000
0aaaaa

#130000
1aaaaa
b1110011 aaaab

#135000
0aaaaa

#140000
1aaaaa
b1101000 aaaab

#145000
0aaaaa

#150000
1aaaaa
b100000 aaaab

#155000
0aaaaa

#160000
1aaaaa
b1101000 aaaab

#165000
0aaaaa

#170000
1aaaaa
b1101111 aaaab

#175000
0aaaaa

#180000
1aaaaa
b1110111 aaaab

#185000
0aaaaa

#190000
1aaaaa
b100000 aaaab

#195000
0aaaaa

#200000
1aaaaa
b1100001 aaaab

#205000
0aaaaa

#210000
1aaaaa
b1110010 aaaab

#215000
0aaaaa

#220000
1aaaaa
b1100101 aaaab

#225000
0aaaaa

#230000
1aaaaa
b100000 aaaab

#235000
0aaaaa

#240000
1aaaaa
b1111001 aaaab

#245000
0aaaaa

#250000
1aaaaa
b1101111 aaaab

#255000
0aaaaa

#260000
1aaaaa
b1110101 aaaab

